ggplot2
…
data_demo <- readr::read_csv("data/intro_r/data_demo.csv")

## Rows: 64 Columns: 9
## ── Column specification ────────────────────────────────────────────────────────
## Delimiter: ","
## chr (2): trt, var
## dbl (7): plot, blk, sev, inc, yld, don, fdk
## 
## ℹ Use `spec()` to retrieve the full column specification for this data.
## ℹ Specify the column types or set `show_col_types = FALSE` to quiet this message.

data_demo

## # A tibble: 64 × 9
##     plot trt   var     blk   sev   inc   yld   don   fdk
##    <dbl> <chr> <chr> <dbl> <dbl> <dbl> <dbl> <dbl> <dbl>
##  1   107 A     R         1  1.95    35  86.6  0.11     4
##  2   109 A     R         1  1.2     20  80.3  0.15     4
##  3   204 A     R         2  0.9     20  81.1  0       42
##  4   214 A     R         2  4.05    50  85.1  0.07    25
##  5   305 A     R         3  1.1     15  84.8  0       29
##  6   316 A     R         3  1.8     10  93.7  0       24
##  7   406 A     R         4  1.4     25  84.5  0.06    37
##  8   412 A     R         4  0.45    10  84.8  0.07    42
##  9   108 A     S         1 13.3     55  92.3  0.42    NA
## 10   110 A     S         1 12.3     50 103.   0.26    NA
## # … with 54 more rows
## # ℹ Use `print(n = ...)` to see more rows
…
