Intro to R - From 0 to Tidyverse
…
## Rows: 64 Columns: 9
## ── Column specification ────────────────────────────────────────────────────────
## Delimiter: ","
## chr (2): trt, var
## dbl (7): plot, blk, sev, inc, yld, don, fdk
## 
## ℹ Use `spec()` to retrieve the full column specification for this data.
## ℹ Specify the column types or set `show_col_types = FALSE` to quiet this message.

data_demo

## # A tibble: 64 × 9
##     plot trt   var     blk   sev   inc   yld   don   fdk
##    <dbl> <chr> <chr> <dbl> <dbl> <dbl> <dbl> <dbl> <dbl>
##  1   107 A     R         1  1.95    35  86.6  0.11     4
##  2   109 A     R         1  1.2     20  80.3  0.15     4
##  3   204 A     R         2  0.9     20  81.1  0       42
##  4   214 A     R         2  4.05    50  85.1  0.07    25
##  5   305 A     R         3  1.1     15  84.8  0       29
##  6   316 A     R         3  1.8     10  93.7  0       24
##  7   406 A     R         4  1.4     25  84.5  0.06    37
##  8   412 A     R         4  0.45    10  84.8  0.07    42
##  9   108 A     S         1 13.3     55  92.3  0.42    NA
## 10   110 A     S         1 12.3     50 103.   0.26    NA
## # … with 54 more rows
## # ℹ Use `print(n = ...)` to see more rows
…
Select

data_demo %>%
  select(trt, var, blk, sev, inc) # select multiple variables = columns

## # A tibble: 64 × 5
##    trt   var     blk   sev   inc
##    <chr> <chr> <dbl> <dbl> <dbl>
##  1 A     R         1  1.95    35
##  2 A     R         1  1.2     20
##  3 A     R         2  0.9     20
##  4 A     R         2  4.05    50
##  5 A     R         3  1.1     15
##  6 A     R         3  1.8     10
##  7 A     R         4  1.4     25
##  8 A     R         4  0.45    10
##  9 A     S         1 13.3     55
## 10 A     S         1 12.3     50
## # … with 54 more rows
## # ℹ Use `print(n = ...)` to see more rows

data_demo %>%
  select(-plot, -yld, -don, -fdk) # another way to achieve the same thing as the previous example, the '-' says to not select those variables

## # A tibble: 64 × 5
##    trt   var     blk   sev   inc
##    <chr> <chr> <dbl> <dbl> <dbl>
##  1 A     R         1  1.95    35
##  2 A     R         1  1.2     20
##  3 A     R         2  0.9     20
##  4 A     R         2  4.05    50
##  5 A     R         3  1.1     15
##  6 A     R         3  1.8     10
##  7 A     R         4  1.4     25
##  8 A     R         4  0.45    10
##  9 A     S         1 13.3     55
## 10 A     S         1 12.3     50
## # … with 54 more rows
## # ℹ Use `print(n = ...)` to see more rows

Mutate

data_demo %>%
  mutate(sev_prop = sev/100, # transform yield and inc from a percentage to a proportion and add those columns to the database
         inc_prop = inc/100) 

## # A tibble: 64 × 11
##     plot trt   var     blk   sev   inc   yld   don   fdk sev_prop inc_prop
##    <dbl> <chr> <chr> <dbl> <dbl> <dbl> <dbl> <dbl> <dbl>    <dbl>    <dbl>
##  1   107 A     R         1  1.95    35  86.6  0.11     4   0.0195     0.35
##  2   109 A     R         1  1.2     20  80.3  0.15     4   0.012      0.2 
##  3   204 A     R         2  0.9     20  81.1  0       42   0.009      0.2 
##  4   214 A     R         2  4.05    50  85.1  0.07    25   0.0405     0.5 
##  5   305 A     R         3  1.1     15  84.8  0       29   0.011      0.15
##  6   316 A     R         3  1.8     10  93.7  0       24   0.018      0.1 
##  7   406 A     R         4  1.4     25  84.5  0.06    37   0.014      0.25
##  8   412 A     R         4  0.45    10  84.8  0.07    42   0.0045     0.1 
##  9   108 A     S         1 13.3     55  92.3  0.42    NA   0.133      0.55
## 10   110 A     S         1 12.3     50 103.   0.26    NA   0.123      0.5 
## # … with 54 more rows
## # ℹ Use `print(n = ...)` to see more rows

data_demo %>%
  mutate(yld = yld*67.25,  # to convert yield in bushels per acre to kilograms per hectare. In this case, note that we replace the original values of yld with the new values
         trt_var = paste0(trt, "_", var)) # combine two variables (trt and var) into a single variable and create a new column

## # A tibble: 64 × 10
##     plot trt   var     blk   sev   inc   yld   don   fdk trt_var
##    <dbl> <chr> <chr> <dbl> <dbl> <dbl> <dbl> <dbl> <dbl> <chr>  
##  1   107 A     R         1  1.95    35 5824.  0.11     4 A_R    
##  2   109 A     R         1  1.2     20 5400.  0.15     4 A_R    
##  3   204 A     R         2  0.9     20 5454.  0       42 A_R    
##  4   214 A     R         2  4.05    50 5723.  0.07    25 A_R    
##  5   305 A     R         3  1.1     15 5703.  0       29 A_R    
##  6   316 A     R         3  1.8     10 6301.  0       24 A_R    
##  7   406 A     R         4  1.4     25 5683.  0.06    37 A_R    
##  8   412 A     R         4  0.45    10 5703.  0.07    42 A_R    
##  9   108 A     S         1 13.3     55 6207.  0.42    NA A_S    
## 10   110 A     S         1 12.3     50 6920.  0.26    NA A_S    
## # … with 54 more rows
## # ℹ Use `print(n = ...)` to see more rows
…
And more (reshape)

# For some analyses and plots, we may want to reshape our data and 
# we can do that using the functions pivot_longer() and pivot_wider()

data_longer <- data_demo %>%
  select(-plot) %>%  # remove an extra var (= plot)
  pivot_longer(cols = -c(trt, var, blk), # columns that should not be reshaped as we change the database format
               names_to = "variables", # name the new column for the variables which gathered
               values_to = "values")   # name for the column where the data are provided 
data_longer

## # A tibble: 320 × 5
##    trt   var     blk variables values
##    <chr> <chr> <dbl> <chr>      <dbl>
##  1 A     R         1 sev         1.95
##  2 A     R         1 inc        35   
##  3 A     R         1 yld        86.6 
##  4 A     R         1 don         0.11
##  5 A     R         1 fdk         4   
##  6 A     R         1 sev         1.2 
##  7 A     R         1 inc        20   
##  8 A     R         1 yld        80.3 
##  9 A     R         1 don         0.15
## 10 A     R         1 fdk         4   
## # … with 310 more rows
## # ℹ Use `print(n = ...)` to see more rows
…
